Tournament,Tier,2023,2022,2021,2020,2019
Las Vegas Challenge,ES,65206,55580,47877,43105,38343
WACO,ES,66457,55582,48685,44144,38890
Open at Austin,ES,,55063,47888,43463,38678
Music City Open,ES,,55789,47541,43370,39769
Jonesboro Open,ES,,55584,48567,43778,38682
OTB Open,ES,,55586,48172,,
Portland Open,ES,,55587,48686,43637,40686
DDO,ES,,55585,47516,43242,38471
Des Moines Challenge,ES,,55592,52009,43541,38849
The Preserve,ES,,55588,48687,45795,
PCS Sula,ES,,54710,47446,43564,39072
Ledgestone,ES,,55591,47981,43452,38717
LWS @ Idlewild,ES,,55589,48688,43983,38723
DGLO,ES,,55590,48338,44224,39325
Maple Hill,ES,,55594,49214,44653,38873
DGPT Champs,ES,,48691,,,
Champions Cup,M,,55451,,,
European Open,M,,56013,49819,43619,38397
Worlds,M,,55460,47784,43622,38709
USDGC,M,,55454,47518,43838,39018
Throw Pink,M,,59566,50023,,
US Womens,M,,56288,47519,43611,39019
Texas States,S,,55583,47512,43344,39028
Blue Ridge Champ,S,,55703,47524,43888,38977
Beaver State,S,,55703,47524,43888,38977
Cascade Challenge,S,,,,,
Zoo Town,S,,60007,51401,,38778
KC Wide Open,S,,56891,,43610,39127
Mid-America Open,S,,58201,48121,43740,38613
Jim Palmeri AFDO,S,,,,,
Discmania Open,S,,,,,
New World Champ,S,,60519,,,
Lake Marshall Open,S,,55553,,,