﻿Place,MPO Points,FPO Points
1,250,250
2,225,230
3,220,210
4,215,190
5,210,170
6,200,150
7,198,130
8,196,110
9,194,100
10,192,90
11,190,80
12,185,70
13,183,60
14,181,50
15,180,40
16,178,30
17,176,25
18,174,20
19,172,15
20,170,10
21,165,5
22,163,0
23,161,-10
24,157,-20
25,154,-30
26,150,-50
27,145,-70
28,143,-90
29,141,-110
30,138,-130
31,135,-150
32,130,-170
33,127,-190
34,124,-210
35,120,-220
36,115,-230
37,113,-240
38,110,-250
39,107,-250
40,105,-250
41,95,-250
42,93,-250
43,90,-250
44,87,-250
45,84,-250
46,80,-250
47,78,-250
48,74,-250
49,70,-250
50,65,-250
51,55,-250
52,52,-250
53,50,-250
54,48,-250
55,44,-250
56,40,-250
57,36,-250
58,32,-250
59,28,-250
60,25,-250
61,20,-250
62,18,-250
63,14,-250
64,10,-250
65,8,-250
66,5,-250
67,3,-250
68,1,-250
69,0,-250
70,-5,-250
71,-10,-250
72,-20,-250
73,-30,-250
74,-35,-250
75,-40,-250
76,-50,-250
77,-60,-250
78,-70,-250
79,-80,-250
80,-90,-250
81,-100,-250
82,-120,-250
83,-125,-250
84,-130,-250
85,-140,-250
86,-150,-250
87,-155,-250
88,-160,-250
89,-165,-250
90,-170,-250
91,-180,-250
92,-185,-250
93,-190,-250
94,-195,-250
95,-200,-250
96,-210,-250
97,-220,-250
98,-230,-250
99,-240,-250
100,-250,-250
101,-250,-250
102,-250,-250
103,-250,-250
104,-250,-250
105,-250,-250
106,-250,-250
107,-250,-250
108,-250,-250
109,-250,-250
110,-250,-250
111,-250,-250
112,-250,-250
113,-250,-250
114,-250,-250
115,-250,-250
116,-250,-250
117,-250,-250
118,-250,-250
119,-250,-250
120,-250,-250
121,-250,-250
122,-250,-250
123,-250,-250
124,-250,-250
125,-250,-250
126,-250,-250
127,-250,-250
128,-250,-250
129,-250,-250
130,-250,-250
131,-250,-250
132,-250,-250
133,-250,-250
134,-250,-250
135,-250,-250
136,-250,-250
137,-250,-250
138,-250,-250
139,-250,-250
140,-250,-250
141,-250,-250
142,-250,-250
143,-250,-250
144,-250,-250
145,-250,-250
146,-250,-250
147,-250,-250
148,-250,-250
149,-250,-250
150,-250,-250
151,-250,-250
152,-250,-250
153,-250,-250
154,-250,-250
155,-250,-250
156,-250,-250
157,-250,-250
158,-250,-250
159,-250,-250
160,-250,-250
161,-250,-250
162,-250,-250
163,-250,-250
164,-250,-250
165,-250,-250
166,-250,-250
167,-250,-250
168,-250,-250
169,-250,-250
170,-250,-250
171,-250,-250
172,-250,-250
173,-250,-250
174,-250,-250
175,-250,-250
176,-250,-250
177,-250,-250
178,-250,-250
179,-250,-250
180,-250,-250
181,-250,-250
182,-250,-250
183,-250,-250
184,-250,-250
185,-250,-250
186,-250,-250
187,-250,-250
188,-250,-250
189,-250,-250
190,-250,-250
191,-250,-250
192,-250,-250
193,-250,-250
194,-250,-250
195,-250,-250
196,-250,-250
197,-250,-250
198,-250,-250
199,-250,-250
200,-250,-250
201,-250,-250
202,-250,-250
203,-250,-250
204,-250,-250
205,-250,-250
206,-250,-250
207,-250,-250
208,-250,-250
209,-250,-250
210,-250,-250
211,-250,-250
212,-250,-250
213,-250,-250
214,-250,-250
215,-250,-250
216,-250,-250
217,-250,-250
218,-250,-250
219,-250,-250
220,-250,-250
221,-250,-250
222,-250,-250
223,-250,-250
224,-250,-250
225,-250,-250
226,-250,-250
227,-250,-250
228,-250,-250
229,-250,-250
230,-250,-250
231,-250,-250
232,-250,-250
233,-250,-250
234,-250,-250
235,-250,-250
236,-250,-250
237,-250,-250
238,-250,-250
239,-250,-250
240,-250,-250
241,-250,-250
242,-250,-250
243,-250,-250
244,-250,-250
245,-250,-250
246,-250,-250
247,-250,-250
248,-250,-250
249,-250,-250
250,-250,-250
251,-250,-250
252,-250,-250
253,-250,-250
254,-250,-250
255,-250,-250
256,-250,-250
257,-250,-250
258,-250,-250
259,-250,-250
260,-250,-250
261,-250,-250
262,-250,-250
263,-250,-250
264,-250,-250
265,-250,-250
266,-250,-250
267,-250,-250
268,-250,-250
269,-250,-250
270,-250,-250
271,-250,-250
272,-250,-250
273,-250,-250
274,-250,-250
275,-250,-250
276,-250,-250
277,-250,-250
278,-250,-250
279,-250,-250
280,-250,-250
281,-250,-250
282,-250,-250
283,-250,-250
284,-250,-250
285,-250,-250
286,-250,-250
287,-250,-250
288,-250,-250
289,-250,-250
290,-250,-250
291,-250,-250
292,-250,-250
293,-250,-250
294,-250,-250
295,-250,-250
296,-250,-250
297,-250,-250
298,-250,-250
299,-250,-250
